%YAML 1.1
%TAG !u! tag:unity3d.com,2011:
--- !u!21 &2100000
Material:
  serializedVersion: 3
  m_ObjectHideFlags: 0
  m_PrefabParentObject: {fileID: 0}
  m_PrefabInternal: {fileID: 0}
  m_Name: Floor
  m_Shader: {fileID: 4800000, guid: fb944acb6ea5b6b4e961e6f8feb2b64a, type: 3}
  m_ShaderKeywords: []
  m_CustomRenderQueue: -1
  m_SavedProperties:
    serializedVersion: 2
    m_TexEnvs:
      data:
        first:
          name: _MainTex
        second:
          m_Texture: {fileID: 2800000, guid: 0f6377872e339455d9912675771556d1, type: 3}
          m_Scale: {x: 100, y: 100}
          m_Offset: {x: 0, y: 0}
      data:
        first:
          name: _BumpMap
        second:
          m_Texture: {fileID: 0}
          m_Scale: {x: 1, y: 1}
          m_Offset: {x: 0, y: 0}
      data:
        first:
          name: _Illum
        second:
          m_Texture: {fileID: 2800000, guid: 0f6377872e339455d9912675771556d1, type: 3}
          m_Scale: {x: 100, y: 100}
          m_Offset: {x: 0, y: 0}
    m_Floats:
      data:
        first:
          name: _EmissionGain
        second: .446428597
      data:
        first:
          name: _Shininess
        second: .0538885444
      data:
        first:
          name: _EmissionLM
        second: 0
    m_Colors:
      data:
        first:
          name: _Color
        second: {r: .661764741, g: .860041559, b: 1, a: 1}
      data:
        first:
          name: _EmissionColor
        second: {r: 0, g: .239103407, b: .301476717, a: 1}
      data:
        first:
          name: _DiffuseColor
        second: {r: .683823526, g: .683823526, b: .683823526, a: 1}
      data:
        first:
          name: _SpecColor
        second: {r: .132352948, g: .132352948, b: .132352948, a: 1}
